word,x,y,weight
porsche,100,100,0.5
calarts,200,200,0.5
ifsowhat,300,300,0.5
horsepower,400,400,0.1
cayman,500,500,0.2
elegance,600,600,0.2
sleek,700,700,0.1
refined,800,800,0.1
palaceoffinearts,900,900,0.4
royalty,1000,1000,0.1
,,,
,,,
,,,
,,,
,,,
,,,
,,,
,,,
,,,